<svg xmlns="http://www.w3.org/2000/svg" width="20" height="20" viewBox="0 0 7.271 4.383">
    <g id="_001-down-chevron" data-name="001-down-chevron" transform="translate(1 -48.907)">
        <g id="Group_6" data-name="Group 6" transform="translate(-1 48.907)">
            <path id="Path_1" fill="#0b5640" d="M6.414 48.907l-2.778 2.71-2.779-2.71-.857.836 3.636 3.547 3.636-3.547z" data-name="Path 1" transform="translate(0 -48.907)"/>
        </g>
    </g>
</svg>
