<svg xmlns="http://www.w3.org/2000/svg" width="32.301" height="31.363" viewBox="0 0 32.301 31.363">
    <defs>
        <style>
            .cls-1{fill:#0b5640}
        </style>
    </defs>
    <g id="_001-stock-market" data-name="001-stock-market" transform="translate(-1.266 -3)">
        <path id="Path_22" d="M23 46h2.163v8.111H23z" class="cls-1" data-name="Path 22" transform="translate(-9.981 -19.748)"/>
        <path id="Path_23" d="M29 51.356h2.163V40L29 42.884z" class="cls-1" data-name="Path 23" transform="translate(-12.737 -16.992)"/>
        <path id="Path_24" d="M35 38h2.163v12.437H35z" class="cls-1" data-name="Path 24" transform="translate(-15.492 -16.074)"/>
        <path id="Path_25" d="M6.4 58.024v-3.5l-3.067 3.5z" class="cls-1" data-name="Path 25" transform="translate(-.947 -23.66)"/>
        <path id="Path_26" d="M11 54.875h2.163v-7.213L11 50.134z" class="cls-1" data-name="Path 26" transform="translate(-4.47 -20.511)"/>
        <path id="Path_27" d="M17 46h2.163v8.111H17z" class="cls-1" data-name="Path 27" transform="translate(-7.226 -19.748)"/>
        <path id="Path_28" d="M41 37.272v12.437h2.163V36.414l-.858.858z" class="cls-1" data-name="Path 28" transform="translate(-18.248 -15.345)"/>
        <path id="Path_29" d="M43.867 7a4.867 4.867 0 1 0 4.867 4.867A4.872 4.872 0 0 0 43.867 7zm2.163 3.785h-1.082v-.541h-1.622a.541.541 0 1 0 0 1.081h1.081a1.622 1.622 0 0 1 0 3.244v1.081h-1.081v-1.08H41.7v-1.622h1.081v.541h1.622a.541.541 0 1 0 0-1.081h-1.077a1.622 1.622 0 0 1 0-3.244V8.081h1.081v1.082h1.623z" class="cls-1" data-name="Path 29" transform="translate(-17.329 -1.837)"/>
        <path id="Path_30" d="M47 32.707v14.377h2.163V30.7c-.059.012-.121.017-.181.028z" class="cls-1" data-name="Path 30" transform="translate(-21.003 -12.72)"/>
        <path id="Path_31" d="M42.03 3a7.03 7.03 0 1 0 7.03 7.03A7.038 7.038 0 0 0 42.03 3zm0 12.978a5.948 5.948 0 1 1 5.948-5.948 5.955 5.955 0 0 1-5.948 5.948z" class="cls-1" data-name="Path 31" transform="translate(-15.492)"/>
        <path id="Path_32" d="M53 45.832h2.163v-17.86A8.08 8.08 0 0 1 53 29.136z" class="cls-1" data-name="Path 32" transform="translate(-23.759 -11.468)"/>
        <path id="Path_33" d="M6.081 28.815h1.082v-2.163h1.081v-6.489H7.163V18H6.081v2.163H5v6.489h1.081z" class="cls-1" data-name="Path 33" transform="translate(-1.715 -6.889)"/>
        <path id="Path_34" d="M14.081 24.733h1.081V22.57h1.081v-5.407h-1.08V15h-1.082v2.163H13v5.407h1.081z" class="cls-1" data-name="Path 34" transform="translate(-5.389 -5.511)"/>
        <path id="Path_35" d="M22.081 18.652h1.081v-2.163h1.081v-4.326h-1.08V10h-1.082v2.163H21v4.326h1.081z" class="cls-1" data-name="Path 35" transform="translate(-9.063 -3.215)"/>
        <path id="Path_36" d="M24.792 30.339a8.036 8.036 0 0 1-1.173-.357l-1.091 1.091h-4.347L14.4 35.4H7.915l-6.649 7.2.794.734 6.328-6.856h6.5l3.785-4.326h4.3z" class="cls-1" data-name="Path 36" transform="translate(0 -12.392)"/>
    </g>
</svg>
